{"page":1,"results":[{"adult":false,"backdrop_path":"/7NRGAtu8E4343NSKwhkgmVRDINw.jpg","genre_ids":[27,9648],"id":507089,"original_language":"en","original_title":"Five Nights at Freddy's","overview":"Recently fired and desperate for work, a troubled young man named Mike agrees to take a position as a night security guard at an abandoned theme restaurant: Freddy Fazbear's Pizzeria. But he soon discovers that nothing at Freddy's is what it seems.","popularity":2653.844,"poster_path":"/A4j8S6moJS2zNtRR8oWF08gRnL5.jpg","release_date":"2023-10-25","title":"Five Nights at Freddy's","video":false,"vote_average":8.2,"vote_count":1692},{"adult":false,"backdrop_path":"/h56edmERPTkey89SqyKu4hINVNy.jpg","genre_ids":[28,53],"id":575264,"original_language":"en","original_title":"Mission: Impossible - Dead Reckoning Part One","overview":"Ethan Hunt and his IMF team embark on their most dangerous mission yet: To track down a terrifying new weapon that threatens all of humanity before it falls into the wrong hands. With control of the future and the world's fate at stake and dark forces from Ethan's past closing in, a deadly race around the globe begins. Confronted by a mysterious, all-powerful enemy, Ethan must consider that nothing can matter more than his missionΓÇönot even the lives of those he cares about most.","popularity":2331.755,"poster_path":"/NNxYkU70HPurnNCSiCjYAmacwm.jpg","release_date":"2023-07-08","title":"Mission: Impossible - Dead Reckoning Part One","video":false,"vote_average":7.7,"vote_count":2102},{"adult":false,"backdrop_path":"/pA3vdhadJPxF5GA1uo8OPTiNQDT.jpg","genre_ids":[28,18],"id":678512,"original_language":"en","original_title":"Sound of Freedom","overview":"The story of Tim Ballard, a former US government agent, who quits his job in order to devote his life to rescuing children from global sex traffickers.","popularity":2071.52,"poster_path":"/qA5kPYZA7FkVvqcEfJRoOy4kpHg.jpg","release_date":"2023-07-03","title":"Sound of Freedom","video":false,"vote_average":8.2,"vote_count":1210},{"adult":false,"backdrop_path":"/tj7mp7uWjVw5N73G5Hwm1bkMOcD.jpg","genre_ids":[28,10752],"id":975902,"original_language":"en","original_title":"Boudica","overview":"Inspired by events in A.D. 60, Boudica follows the eponymous Celtic warrior who rules the Iceni people alongside her husband Prasutagus. When he dies at the hands of Roman soldiers, BoudicaΓÇÖs kingdom is left without a male heir and the Romans seize her land and property.  Driven to the edge of madness and determined to avenge her husbandΓÇÖs death, Boudica rallies the various tribes from the region and wages an epic war against the mighty Roman empire.","popularity":1196.292,"poster_path":"/ssEFC5wfFjj7lJpUgwJDOK1Xu1J.jpg","release_date":"2023-10-26","title":"Boudica","video":false,"vote_average":7,"vote_count":14},{"adult":false,"backdrop_path":"/4XM8DUTQb3lhLemJC51Jx4a2EuA.jpg","genre_ids":[28,80,53],"id":385687,"original_language":"en","original_title":"Fast X","overview":"Over many missions and against impossible odds, Dom Toretto and his family have outsmarted, out-nerved and outdriven every foe in their path. Now, they confront the most lethal opponent they've ever faced: A terrifying threat emerging from the shadows of the past who's fueled by blood revenge, and who is determined to shatter this family and destroy everythingΓÇöand everyoneΓÇöthat Dom loves, forever.","popularity":1086.171,"poster_path":"/fiVW06jE7z9YnO4trhaMEdclSiC.jpg","release_date":"2023-05-17","title":"Fast X","video":false,"vote_average":7.2,"vote_count":4158},{"adult":false,"backdrop_path":"/dZbLqRjjiiNCpTYzhzL2NMvz4J0.jpg","genre_ids":[27,53],"id":951491,"original_language":"en","original_title":"Saw X","overview":"Between the events of 'Saw' and 'Saw II', a sick and desperate John Kramer travels to Mexico for a risky and experimental medical procedure in hopes of a miracle cure for his cancer, only to discover the entire operation is a scam to defraud the most vulnerable. Armed with a newfound purpose, the infamous serial killer returns to his work, turning the tables on the con artists in his signature visceral way through devious, deranged, and ingenious traps.","popularity":1077.969,"poster_path":"/aQPeznSu7XDTrrdCtT5eLiu52Yu.jpg","release_date":"2023-09-26","title":"Saw X","video":false,"vote_average":7.4,"vote_count":901},{"adult":false,"backdrop_path":"/eSsMzJpzAwCa69tm6Wco2il44aJ.jpg","genre_ids":[28,80,18,53],"id":939335,"original_language":"en","original_title":"Muzzle","overview":"LAPD K-9 officer Jake Rosser has just witnessed the shocking murder of his dedicated partner by a mysterious assailant. As he investigates the shooterΓÇÖs identity, he uncovers a vast conspiracy that has a chokehold on the city in this thrilling journey through the tangled streets of Los Angeles and the corrupt bureaucracy of the LAPD.","popularity":1050.432,"poster_path":"/qXChf7MFL36BgoLkiB3BzXiwW82.jpg","release_date":"2023-09-29","title":"Muzzle","video":false,"vote_average":6.3,"vote_count":91},{"adult":false,"backdrop_path":"/tC78Pck2YCsUAtEdZwuHYUFYtOj.jpg","genre_ids":[28,53,80],"id":926393,"original_language":"en","original_title":"The Equalizer 3","overview":"Robert McCall finds himself at home in Southern Italy but he discovers his friends are under the control of local crime bosses. As events turn deadly, McCall knows what he has to do: become his friends' protector by taking on the mafia.","popularity":985.054,"poster_path":"/b0Ej6fnXAP8fK75hlyi2jKqdhHz.jpg","release_date":"2023-08-30","title":"The Equalizer 3","video":false,"vote_average":7.4,"vote_count":1454},{"adult":false,"backdrop_path":"/rMvPXy8PUjj1o8o1pzgQbdNCsvj.jpg","genre_ids":[28,12,53],"id":299054,"original_language":"en","original_title":"Expend4bles","overview":"Armed with every weapon they can get their hands on and the skills to use them, The Expendables are the worldΓÇÖs last line of defense and the team that gets called when all other options are off the table. But new team members with new styles and tactics are going to give ΓÇ£new bloodΓÇ¥ a whole new meaning.","popularity":892.472,"poster_path":"/iwsMu0ehRPbtaSxqiaUDQB9qMWT.jpg","release_date":"2023-09-15","title":"Expend4bles","video":false,"vote_average":6.5,"vote_count":618},{"adult":false,"backdrop_path":"/iiXliCeykkzmJ0Eg9RYJ7F2CWSz.jpg","genre_ids":[28,53,80],"id":762430,"original_language":"en","original_title":"Retribution","overview":"When a mysterious caller puts a bomb under his car seat, Matt Turner begins a high-speed chase across the city to complete a specific series of tasks- all with his kids trapped in the back seat.","popularity":890.39,"poster_path":"/ljl70pjLIX1hx3bPyCCbxGj6WPr.jpg","release_date":"2023-08-23","title":"Retribution","video":false,"vote_average":7,"vote_count":595},{"adult":false,"backdrop_path":"/jkKVLzLWjSvTnc84VzeljhSy6j8.jpg","genre_ids":[10749,18],"id":820525,"original_language":"en","original_title":"After Everything","overview":"Besieged by writerΓÇÖs block and the crushing breakup with Tessa, Hardin travels to Portugal in search of a woman he wronged in the past ΓÇô and to find himself. Hoping to win back Tessa, he realizes he needs to change his ways before he can make the ultimate commitment.","popularity":874.867,"poster_path":"/uQxjZGU6rxSPSMeAJPJQlmfV3ys.jpg","release_date":"2023-09-13","title":"After Everything","video":false,"vote_average":7,"vote_count":452},{"adult":false,"backdrop_path":"/r7DuyYJ0N3cD8bRKsR5Ygq2P7oa.jpg","genre_ids":[12,28,18],"id":980489,"original_language":"en","original_title":"Gran Turismo","overview":"The ultimate wish-fulfillment tale of a teenage Gran Turismo player whose gaming skills won him a series of Nissan competitions to become an actual professional racecar driver.","popularity":800.6,"poster_path":"/51tqzRtKMMZEYUpSYkrUE7v9ehm.jpg","release_date":"2023-08-09","title":"Gran Turismo","video":false,"vote_average":8,"vote_count":1338},{"adult":false,"backdrop_path":"/pLm9j7o5InoWaG2tlaQABYR2cAx.jpg","genre_ids":[27,9648,53],"id":968051,"original_language":"en","original_title":"The Nun II","overview":"In 1956 France, a priest is violently murdered, and Sister Irene begins to investigate. She once again comes face-to-face with a powerful evil.","popularity":794.612,"poster_path":"/5gzzkR7y3hnY8AD1wXjCnVlHba5.jpg","release_date":"2023-09-06","title":"The Nun II","video":false,"vote_average":6.9,"vote_count":1339},{"adult":false,"backdrop_path":"/azD31DjpV3PJfjF3h72LVw2WCSD.jpg","genre_ids":[27],"id":807172,"original_language":"en","original_title":"The Exorcist: Believer","overview":"When two girls disappear into the woods and return three days later with no memory of what happened to them, the father of one girl seeks out Chris MacNeil, who's been forever altered by what happened to her daughter fifty years ago.","popularity":747.977,"poster_path":"/qVKirUdmoex8SdfUk8WDDWwrcCh.jpg","release_date":"2023-10-04","title":"The Exorcist: Believer","video":false,"vote_average":6.2,"vote_count":478},{"adult":false,"backdrop_path":"/wVTvfxz53pDqrIvbrxhVdKcLhip.jpg","genre_ids":[28,12,878,53],"id":9381,"original_language":"en","original_title":"Babylon A.D.","overview":"A veteran-turned-mercenary is hired to take a young woman with a secret from post-apocalyptic Eastern Europe to New York City.","popularity":732.08,"poster_path":"/kt9nqD0uOar8IVE9191HXhWOXKI.jpg","release_date":"2008-08-20","title":"Babylon A.D.","video":false,"vote_average":5.6,"vote_count":1873},{"adult":false,"backdrop_path":"/AprNYUAS2AJ3xVgg7Wwt00GVvsM.jpg","genre_ids":[16,10751,28,878],"id":893723,"original_language":"en","original_title":"PAW Patrol: The Mighty Movie","overview":"A magical meteor crash lands in Adventure City and gives the PAW Patrol pups superpowers, transforming them into The Mighty Pups.","popularity":623.827,"poster_path":"/aTvePCU7exLepwg5hWySjwxojQK.jpg","release_date":"2023-09-21","title":"PAW Patrol: The Mighty Movie","video":false,"vote_average":7,"vote_count":122},{"adult":false,"backdrop_path":"/5mzr6JZbrqnqD8rCEvPhuCE5Fw2.jpg","genre_ids":[28,878,27],"id":615656,"original_language":"en","original_title":"Meg 2: The Trench","overview":"An exploratory dive into the deepest depths of the ocean of a daring research team spirals into chaos when a malevolent mining operation threatens their mission and forces them into a high-stakes battle for survival.","popularity":622.19,"poster_path":"/4m1Au3YkjqsxF8iwQy0fPYSxE0h.jpg","release_date":"2023-08-02","title":"Meg 2: The Trench","video":false,"vote_average":6.8,"vote_count":2457},{"adult":false,"backdrop_path":"/S3EIcOUQYxgd3QzjOo2rZJ2MN8.jpg","genre_ids":[28,18,10752],"id":554600,"original_language":"hi","original_title":"Uri: The Surgical Strike","overview":"Following the roguish terrorist attacks at Uri Army Base camp in Kashmir, India takes the fight to the enemy, in its most successful covert operation till date with one and only one objective of avenging their fallen heroes.","popularity":546.576,"poster_path":"/yNySAgpAnWmPpYinim9E0tUzJWG.jpg","release_date":"2019-01-11","title":"Uri: The Surgical Strike","video":false,"vote_average":7.1,"vote_count":283},{"adult":false,"backdrop_path":"/3H9NA1KWEQN0ItL3Wl3SFZYP6yV.jpg","genre_ids":[28,878,12],"id":565770,"original_language":"en","original_title":"Blue Beetle","overview":"Recent college grad Jaime Reyes returns home full of aspirations for his future, only to find that home is not quite as he left it. As he searches to find his purpose in the world, fate intervenes when Jaime unexpectedly finds himself in possession of an ancient relic of alien biotechnology: the Scarab.","popularity":543.165,"poster_path":"/mXLOHHc1Zeuwsl4xYKjKh2280oL.jpg","release_date":"2023-08-16","title":"Blue Beetle","video":false,"vote_average":7,"vote_count":1496},{"adult":false,"backdrop_path":"/askg3SMvhqEl4OL52YuvdtY40Yb.jpg","genre_ids":[10751,16,14,10402,35,12],"id":354912,"original_language":"en","original_title":"Coco","overview":"Despite his familyΓÇÖs baffling generations-old ban on music, Miguel dreams of becoming an accomplished musician like his idol, Ernesto de la Cruz. Desperate to prove his talent, Miguel finds himself in the stunning and colorful Land of the Dead following a mysterious chain of events. Along the way, he meets charming trickster Hector, and together, they set off on an extraordinary journey to unlock the real story behind Miguel's family history.","popularity":531.887,"poster_path":"/gGEsBPAijhVUFoiNpgZXqRVWJt2.jpg","release_date":"2017-10-27","title":"Coco","video":false,"vote_average":8.2,"vote_count":18085}],"total_pages":40897,"total_results":817935}

{"page":2,"results":[{"adult":false,"backdrop_path":"/2vFuG6bWGyQUzYS9d69E5l85nIz.jpg","genre_ids":[28,12,878],"id":667538,"original_language":"en","original_title":"Transformers: Rise of the Beasts","overview":"When a new threat capable of destroying the entire planet emerges, Optimus Prime and the Autobots must team up with a powerful faction known as the Maximals. With the fate of humanity hanging in the balance, humans Noah and Elena will do whatever it takes to help the Transformers as they engage in the ultimate battle to save Earth.","popularity":486.902,"poster_path":"/gPbM0MK8CP8A174rmUwGsADNYKD.jpg","release_date":"2023-06-06","title":"Transformers: Rise of the Beasts","video":false,"vote_average":7.5,"vote_count":3505},{"adult":false,"backdrop_path":"/vT17lPUglrAzjEqMwjPpIDe49ty.jpg","genre_ids":[16,12,10751,14],"id":459003,"original_language":"uk","original_title":"╨£╨░╨▓╨║╨░: ╨¢╤û╤ü╨╛╨▓╨░ ╨┐╤û╤ü╨╜╤Å","overview":"Forest soul Mavka faces an impossible choice between her heart and her duty as guardian to the Heart of the Forest, when she falls in love with the talented young human musician Lukas.","popularity":481.491,"poster_path":"/eeJjd9JU2Mdj9d7nWRFLWlrcExi.jpg","release_date":"2023-03-02","title":"Mavka: The Forest Song","video":false,"vote_average":7.3,"vote_count":469},{"adult":false,"backdrop_path":"/ctMserH8g2SeOAnCw5gFjdQF8mo.jpg","genre_ids":[35,12,14],"id":346698,"original_language":"en","original_title":"Barbie","overview":"Barbie and Ken are having the time of their lives in the colorful and seemingly perfect world of Barbie Land. However, when they get a chance to go to the real world, they soon discover the joys and perils of living among humans.","popularity":471.566,"poster_path":"/iuFNMS8U5cb6xfzi51Dbkovj7vM.jpg","release_date":"2023-07-19","title":"Barbie","video":false,"vote_average":7.2,"vote_count":5757},{"adult":false,"backdrop_path":"/bGQyu8H6q20ZRxqr3z65kE17QPA.jpg","genre_ids":[28,53],"id":1171541,"original_language":"en","original_title":"Sniper: G.R.I.T. - Global Response & Intelligence Team","overview":"When an international terrorist cult threatens global political stability and kidnaps a fellow agent, Ace Sniper Brandon Beckett and the newly-formed Global Response & Intelligence Team ΓÇô or G.R.I.T. ΓÇô led by Colonel Stone must travel across the world to Malta, infiltrate the cult, and take out its leader to free Lady Death and stop the global threat.","popularity":465.495,"poster_path":"/a9bt9byTQ1MIfRWYQX240HiYPrl.jpg","release_date":"2023-09-26","title":"Sniper: G.R.I.T. - Global Response & Intelligence Team","video":false,"vote_average":6.9,"vote_count":73},{"adult":false,"backdrop_path":"/vDRcux3EHYluUF1TTi2DcE1K98Q.jpg","genre_ids":[878,12,10770],"id":55241,"original_language":"en","original_title":"Meteor Storm","overview":"San Francisco becomes a target for waves of destructive meteors after a rogue comet orbits around the earth... For astronomer, Michelle Young, what was meant to be a once-in-a-lifetime celestial event, soon turns into her worst nightmare as thousands of meteors break the surface of the atmosphere and bombard the city of San Francisco.","popularity":455.81,"poster_path":"/aVzlVwal128Q3mtGOBOC9W2XYcH.jpg","release_date":"2010-01-30","title":"Meteor Storm","video":false,"vote_average":4.6,"vote_count":49},{"adult":false,"backdrop_path":"/h7BoGo4NhckWRiMUCi3Qr8GwBDA.jpg","genre_ids":[28,80,18,53],"id":1039690,"original_language":"en","original_title":"Desperation Road","overview":"After 11 years in a Mississippi state prison, Russell Gaines struggles to leave his past sins behind him as he returns home to his stoic father, Mitchell. One fateful night he meets Maben, a young mother with nothing but a stolen gun and a murdered police deputy to her name. Desperate and on the run, Russell and Maben must trust one another to escape their own circumstances, before the truths of their intertwined violent past threatens to destroy them.","popularity":455.419,"poster_path":"/tPyj6Gii1HrnzCbJXEF7JdSFkQ8.jpg","release_date":"2023-10-19","title":"Desperation Road","video":false,"vote_average":7.4,"vote_count":45},{"adult":false,"backdrop_path":"/4HodYYKEIsGOdinkGi2Ucz6X9i0.jpg","genre_ids":[16,28,12],"id":569094,"original_language":"en","original_title":"Spider-Man: Across the Spider-Verse","overview":"After reuniting with Gwen Stacy, BrooklynΓÇÖs full-time, friendly neighborhood Spider-Man is catapulted across the Multiverse, where he encounters the Spider Society, a team of Spider-People charged with protecting the MultiverseΓÇÖs very existence. But when the heroes clash on how to handle a new threat, Miles finds himself pitted against the other Spiders and must set out on his own to save those he loves most.","popularity":435.008,"poster_path":"/8Vt6mWEReuy4Of61Lnj5Xj704m8.jpg","release_date":"2023-05-31","title":"Spider-Man: Across the Spider-Verse","video":false,"vote_average":8.4,"vote_count":4798},{"adult":false,"backdrop_path":"/x1dBfTThFQn3utzRFtlbmqw9crI.jpg","genre_ids":[28,12,878],"id":609681,"original_language":"en","original_title":"The Marvels","overview":"Carol Danvers, aka Captain Marvel, has reclaimed her identity from the tyrannical Kree and taken revenge on the Supreme Intelligence. But unintended consequences see Carol shouldering the burden of a destabilized universe. When her duties send her to an anomalous wormhole linked to a Kree revolutionary, her powers become entangled with that of Jersey City super-fan Kamala Khan, aka Ms. Marvel, and CarolΓÇÖs estranged niece, now S.A.B.E.R. astronaut Captain Monica Rambeau. Together, this unlikely trio must team up and learn to work in concert to save the universe.","popularity":428.515,"poster_path":"/Ag3D9qXjhJ2FUkrlJ0Cv1pgxqYQ.jpg","release_date":"2023-11-08","title":"The Marvels","video":false,"vote_average":7.3,"vote_count":24},{"adult":false,"backdrop_path":"/xvzxqKWltnj6qSiWBXRq6ZCdcrw.jpg","genre_ids":[53,18],"id":1151534,"original_language":"es","original_title":"Nowhere","overview":"A young pregnant woman named Mia escapes from a country at war by hiding in a maritime container aboard a cargo ship. After a violent storm, Mia gives birth to the child while lost at sea, where she must fight to survive.","popularity":425.705,"poster_path":"/zwKaPkkLizCg1onpHQq89LWugkS.jpg","release_date":"2023-09-29","title":"Nowhere","video":false,"vote_average":7.6,"vote_count":803},{"adult":false,"backdrop_path":"/4fLZUr1e65hKPPVw0R3PmKFKxj1.jpg","genre_ids":[16,35,10751,14,10749],"id":976573,"original_language":"en","original_title":"Elemental","overview":"In a city where fire, water, land and air residents live together, a fiery young woman and a go-with-the-flow guy will discover something elemental: how much they have in common.","popularity":420.486,"poster_path":"/4Y1WNkd88JXmGfhtWR7dmDAo1T2.jpg","release_date":"2023-06-14","title":"Elemental","video":false,"vote_average":7.7,"vote_count":2881},{"adult":false,"backdrop_path":"/kHlX3oqdD4VGaLpB8O78M25KfdS.jpg","genre_ids":[9648,53,80],"id":945729,"original_language":"en","original_title":"A Haunting in Venice","overview":"Celebrated sleuth Hercule Poirot, now retired and living in self-imposed exile in Venice, reluctantly attends a Halloween s├⌐ance at a decaying, haunted palazzo. When one of the guests is murdered, the detective is thrust into a sinister world of shadows and secrets.","popularity":416.815,"poster_path":"/1Xgjl22MkAZQUavvOeBqRehrvqO.jpg","release_date":"2023-09-13","title":"A Haunting in Venice","video":false,"vote_average":6.8,"vote_count":976},{"adult":false,"backdrop_path":"/5jlkyXB2sfEBb8EbGsEQTUQ9JGA.jpg","genre_ids":[16],"id":118249,"original_language":"en","original_title":"Thriller Night","overview":"A Shrek parody of Michael Jackson's Thriller song and music video, with Donkey singing.","popularity":406.58,"poster_path":"/mPQei2YUIY0Ljd3O5Wy7LDuvC8S.jpg","release_date":"2011-09-13","title":"Thriller Night","video":false,"vote_average":6.9,"vote_count":73},{"adult":false,"backdrop_path":"/iIvQnZyzgx9TkbrOgcXx0p7aLiq.jpg","genre_ids":[27,53],"id":1008042,"original_language":"en","original_title":"Talk to Me","overview":"When a group of friends discover how to conjure spirits using an embalmed hand, they become hooked on the new thrill, until one of them goes too far and unleashes terrifying supernatural forces.","popularity":403.078,"poster_path":"/kdPMUMJzyYAc4roD52qavX0nLIC.jpg","release_date":"2023-07-26","title":"Talk to Me","video":false,"vote_average":7.2,"vote_count":1683},{"adult":false,"backdrop_path":"/c1f7HpEEEZaOQ5PxAGLwbauURMu.jpg","genre_ids":[28,53,80],"id":1007427,"original_language":"en","original_title":"Night Train","overview":"Mother Holly McCord is driven to extremes to save the life of her young son. Even if it means hauling black market drugs in her souped-up truck, with the Feds in hot pursuit. With two bounties on her head and her sonΓÇÖs life on the line, Holly climbs behind the wheel of ΓÇ£Night Train,ΓÇ¥ ready to outrun, out gun, and outlast them all.","popularity":402.922,"poster_path":"/vKzdwficUcFNisOM5mN3XXXUzA6.jpg","release_date":"2023-01-13","title":"Night Train","video":false,"vote_average":6.8,"vote_count":21},{"adult":false,"backdrop_path":"/5lmhjGvg5ddXbTXzeNJfU4qpIeh.jpg","genre_ids":[28,18,36],"id":492008,"original_language":"ko","original_title":"Ω▓ÇΩ░¥","overview":"After being blinded in a coup against the king, Joseon's greatest swordsman goes into hiding, far removed from his city's anguish. But when traffickers kidnap his daughter, he has no choice but to unsheathe his sword once more.","popularity":400.218,"poster_path":"/r08U3dwiOeStXcjYmfnRyumgKyq.jpg","release_date":"2020-09-23","title":"The Swordsman","video":false,"vote_average":7.6,"vote_count":191},{"adult":false,"backdrop_path":"/nohrh9aHNB1ehXmdtTZV5vStzcs.jpg","genre_ids":[28,35,80],"id":1000081,"original_language":"fr","original_title":"Sentinelle","overview":"Fran├ºois Sentinelle has two lives. By day, he is the most famous cop of R├⌐union Island, known for his tough methods and flowery shirts, pursuing criminals in his famous yellow defender. But the rest of the time, Sentinelle is also a charming singer.","popularity":399.76,"poster_path":"/wrFg0Q1kqfOhxlRvb8Dle7WF58F.jpg","release_date":"2023-08-27","title":"Sentinelle","video":false,"vote_average":5.1,"vote_count":179},{"adult":false,"backdrop_path":"/cavK9ox37pxDg11RvJINMH63onU.jpg","genre_ids":[27],"id":744857,"original_language":"es","original_title":"Cuando acecha la maldad","overview":"Residents of a small rural town discover that a demon is about to be born among them. They desperately try to escape before the evil is born, but it may be too late.","popularity":398.05,"poster_path":"/iQ7G9LhP7NRRIUM4Vlai3eOxBAc.jpg","release_date":"2023-10-05","title":"When Evil Lurks","video":false,"vote_average":7.6,"vote_count":147},{"adult":false,"backdrop_path":"/9n2tJBplPbgR2ca05hS5CKXwP2c.jpg","genre_ids":[16,10751,12,14,35],"id":502356,"original_language":"en","original_title":"The Super Mario Bros. Movie","overview":"While working underground to fix a water main, Brooklyn plumbersΓÇöand brothersΓÇöMario and Luigi are transported down a mysterious pipe and wander into a magical new world. But when the brothers are separated, Mario embarks on an epic quest to find Luigi.","popularity":379.616,"poster_path":"/qNBAXBIQlnOThrVvA6mA2B5ggV6.jpg","release_date":"2023-04-05","title":"The Super Mario Bros. Movie","video":false,"vote_average":7.8,"vote_count":7093},{"adult":false,"backdrop_path":"/fvsKY0EjwC3kMmP6tuuLkFqqLty.jpg","genre_ids":[37,28,18],"id":759584,"original_language":"en","original_title":"Surrounded","overview":"After her stagecoach is ambushed, a woman is  tasked with holding a dangerous outlaw captive and must survive the day when the banditΓÇÖs gang tries to free him.","popularity":378.815,"poster_path":"/iVVvlosgMU6aePXavihV3L3V3D6.jpg","release_date":"2023-04-02","title":"Surrounded","video":false,"vote_average":6.4,"vote_count":27},{"adult":false,"backdrop_path":"/7I6VUdPj6tQECNHdviJkUHD2u89.jpg","genre_ids":[28,53,80],"id":603692,"original_language":"en","original_title":"John Wick: Chapter 4","overview":"With the price on his head ever increasing, John Wick uncovers a path to defeating The High Table. But before he can earn his freedom, Wick must face off against a new enemy with powerful alliances across the globe and forces that turn old friends into foes.","popularity":371.717,"poster_path":"/vZloFAK7NmvMGKE7VkF5UHaz0I.jpg","release_date":"2023-03-22","title":"John Wick: Chapter 4","video":false,"vote_average":7.8,"vote_count":4898}],"total_pages":40897,"total_results":817927}
